[{
    "id":1,
    "apellidos": "Espinales",
    "nombres": "Javier",
    "cedula": "1314025154",
    "direccion": "santa Marta",
    "telefono": "096552125"
    
   },
   {
    "id": 2,
    "apellidos": "vinces",
    "nombres": "Javier",
    "Cedula ": "130755468",
    "direccion": "2 de agosto",
    "telefono": "091452254"
    
   },
   {
    "id": 3,
    "Cedula": "130765805",
    "apellidos": "Macias ",
    "nombres": "Luis",
    "direccion": "tarqui",
    "telefono": "0972457614"
   
   },
   {
    "id": 4,
    "Cedula": "1316054105",
    "apellidos": "Moreira",
    "nombres": "Fernando ",
    "direccion": "Cuba",
    "telefono": "094762142"
    
   },
   {
    "id": 5,
    "Cedula": "1382043520",
    "apellidos": "Pilay ",
    "nombres": "Angel",
    "direccion": "Santa Marta",
    "telefono": "0982645201 "
    
   },
   {
    "id": 6,
    "Cedula": "1315015026",
    "apellidos": "Mendoza",
    "nombres": "Jamileth",
    "direccion": "San Mateo",
    "telefono": "092424158"
    
   },
   {
    "id": 7,
    "cedula": "1312043256",
    "apellidos": " Cedeño",
    "nombres": "Oscar",
    "direccion": "portoviejo",
    "telefono": "096745846"
   },
   {
    "id": 8,
    "cedula": "131234003",
    "apellidos": "Rivadeneira",
    "nombres": "Maria ",
    "direccion": "La Pradera",
    "telefono": "0961457255"
    
   },
   {
    "id": 9,
    "cedula": "13014257154",
    "apellidos": "Lopez",
    "nombres": "Keyla",
    "direccion": "Los Bajo",
    "telefono": "096241021"
    
   },
   {
    "id": 10,
    "cedula": "1302453001",
    "apellidos": "Choes",
    "nombres": "David",
    "direccion": "la Revancha",
    "telefono": "093332221"
   }
   ]
   